<?xml version="1.0" encoding="UTF-8"?>
<svg width="25px" height="25px" viewBox="0 0 25 25" version="1.1" xmlns="http://www.w3.org/2000/svg" xmlns:xlink="http://www.w3.org/1999/xlink">
    <!-- Generator: Sketch 45.1 (43504) - http://www.bohemiancoding.com/sketch -->
    <title>X_25x25</title>
    <desc>Created with Sketch.</desc>
    <defs></defs>
    <g id="Page-1" stroke="none" stroke-width="1" fill="none" fill-rule="evenodd" stroke-linecap="square">
        <g id="icons" transform="translate(-38.000000, -339.000000)" stroke="#000000">
            <g id="X_25x25" transform="translate(38.000000, 339.000000)">
                <path d="M24.375,0.694444444 L0.625,24.3055556" id="Line"></path>
                <path d="M24.375,0.694444444 L0.625,24.3055556" id="Line-Copy-5" transform="translate(12.500000, 12.500000) scale(1, -1) translate(-12.500000, -12.500000) "></path>
            </g>
        </g>
    </g>
</svg>